{
	"info": {
		"_postman_id": "5b387dc8-3a22-4a20-aa20-c1d611521c8d",
		"name": "Playground-SLS",
		"schema": "https://schema.getpostman.com/json/collection/v2.1.0/collection.json"
	},
	"item": [
		{
			"name": "Save",
			"request": {
				"method": "POST",
				"header": [
					{
						"key": "AAA",
						"value": "BBB",
						"type": "text"
					},
					{
						"key": "CCC",
						"value": "DDD",
						"type": "text"
					}
				],
				"body": {
					"mode": "raw",
					"raw": "{\n\t\"name\"    :   \"Fariz\",\n\t\"address\" :   \"Jakarta\",\n\t\"phone\"   :   \"0812345678\"\n}",
					"options": {
						"raw": {
							"language": "json"
						}
					}
				},
				"url": {
					"raw": "http://localhost:8081/employee/save",
					"protocol": "http",
					"host": [
						"localhost"
					],
					"port": "8081",
					"path": [
						"employee",
						"save"
					]
				}
			},
			"response": []
		},
		{
			"name": "List",
			"protocolProfileBehavior": {
				"disableBodyPruning": true
			},
			"request": {
				"method": "GET",
				"header": [
					{
						"key": "AAA",
						"value": "BBB",
						"type": "text"
					},
					{
						"key": "CCC",
						"value": "DDD",
						"type": "text"
					}
				],
				"body": {
					"mode": "raw",
					"raw": "",
					"options": {
						"raw": {
							"language": "json"
						}
					}
				},
				"url": {
					"raw": "http://localhost:8081/employee/list",
					"protocol": "http",
					"host": [
						"localhost"
					],
					"port": "8081",
					"path": [
						"employee",
						"list"
					]
				}
			},
			"response": []
		},
		{
			"name": "Detail",
			"protocolProfileBehavior": {
				"disableBodyPruning": true
			},
			"request": {
				"method": "GET",
				"header": [
					{
						"key": "AAA",
						"value": "BBB",
						"type": "text"
					},
					{
						"key": "CCC",
						"value": "DDD",
						"type": "text"
					}
				],
				"body": {
					"mode": "raw",
					"raw": "",
					"options": {
						"raw": {
							"language": "json"
						}
					}
				},
				"url": {
					"raw": "http://localhost:8081/employee/detail/1",
					"protocol": "http",
					"host": [
						"localhost"
					],
					"port": "8081",
					"path": [
						"employee",
						"detail",
						"1"
					]
				}
			},
			"response": []
		},
		{
			"name": "Custom Error Handler",
			"protocolProfileBehavior": {
				"disableBodyPruning": true
			},
			"request": {
				"method": "GET",
				"header": [
					{
						"key": "AAA",
						"value": "BBB",
						"type": "text"
					},
					{
						"key": "CCC",
						"value": "DDD",
						"type": "text"
					}
				],
				"body": {
					"mode": "raw",
					"raw": "",
					"options": {
						"raw": {
							"language": "json"
						}
					}
				},
				"url": {
					"raw": "http://localhost:8081/employee/detail/999",
					"protocol": "http",
					"host": [
						"localhost"
					],
					"port": "8081",
					"path": [
						"employee",
						"detail",
						"999"
					]
				}
			},
			"response": []
		}
	],
	"protocolProfileBehavior": {}
}